{
  "type": "minecraft:crafting_shaped",
  "pattern": [
    "ILI",
    "LSL",
    "ILI"
  ],
  "key": {
    "I": {
        "item": "minecraft:iron_ingot"
    },
    "L": {
        "item": "minecraft:lapis_lazuli"
    },
    "S": {
        "item": "computercraft:speaker"
    }
  },
  "result": {
    "item": "ccchatbox:chat_block",
    "count": 1
  }
}
